module modernc.org/tk9.0

go 1.23.0

require (
	github.com/adrg/xdg v0.5.3
	github.com/disintegration/imaging v1.6.2
	github.com/ebitengine/purego v0.8.2
	github.com/evilsocket/islazy v1.11.0
	github.com/expr-lang/expr v1.16.9
	github.com/mat/besticon/v3 v3.21.0
	github.com/mileusna/useragent v1.3.5
	golang.org/x/image v0.25.0
	golang.org/x/net v0.37.0
	golang.org/x/sys v0.31.0
	modernc.org/fileutil v1.3.0
	modernc.org/knuth v0.5.4
	modernc.org/libc v1.61.13
	modernc.org/libtcl9.0 v0.15.1
	modernc.org/libtk9.0 v0.15.0
	modernc.org/mathutil v1.7.1
	modernc.org/memory v1.8.2
	modernc.org/ngrab v0.1.0
	modernc.org/opt v0.1.4
	modernc.org/rec v0.3.3
	modernc.org/tcl9.0 v0.15.25
)

require (
	github.com/dustin/go-humanize v1.0.1 // indirect
	github.com/google/uuid v1.6.0 // indirect
	github.com/hashicorp/golang-lru/v2 v2.0.7 // indirect
	github.com/mattn/go-isatty v0.0.20 // indirect
	github.com/ncruces/go-strftime v0.1.9 // indirect
	github.com/remyoudompheng/bigfft v0.0.0-20230129092748-24d4a6f8daec // indirect
	golang.org/x/exp v0.0.0-20241217172543-b2144cdd0a67 // indirect
	modernc.org/fsm v1.3.2 // indirect
	modernc.org/gc/v3 v3.0.0-20250225134559-fd9931328834 // indirect
	modernc.org/libX11 v0.11.2 // indirect
	modernc.org/libXau v0.9.2 // indirect
	modernc.org/libXdmcp v0.12.0 // indirect
	modernc.org/libXft v0.10.0 // indirect
	modernc.org/libXrender v0.9.0 // indirect
	modernc.org/libbsd v0.11.1 // indirect
	modernc.org/libexpat v0.10.2 // indirect
	modernc.org/libfontconfig v0.8.2 // indirect
	modernc.org/libfreetype v0.9.1 // indirect
	modernc.org/libmd v0.12.0 // indirect
	modernc.org/libxcb v0.11.0 // indirect
	modernc.org/libz v0.16.10 // indirect
	modernc.org/regexp v1.7.9 // indirect
	modernc.org/sortutil v1.2.1 // indirect
	modernc.org/strutil v1.2.1 // indirect
	modernc.org/token v1.1.0 // indirect
)
